[
  {
    "quote": "Self-harm, my soul, you are doing self-harm: and you will have no more opportunity for self-respect. Life for each of us is a mere moment, and this life of yours is nearly over, while you still show yourself no honour, but let your own welfare depend on other people's souls.",
    "source": "Meditations",
    "author": "Marcus Aurelius"
  },
  {
    "quote": "No wandering. In every impulse, give what is right: in every thought, stick to what is certain.",
    "source": "Meditations",
    "author": "Marcus Aurelius"
  },
  {
    "quote": "When circumstances force you to some sort of distress, quickly return to yourself. Do not stay out of rhythm for longer than you must: you will master the harmony the more by constantly going back to it.",
    "source": "Meditations",
    "author": "Marcus Aurelius"
  },
  {
    "quote": "Observe the movement of stars as if you were running their courses with them, and let your mind constantly dwell on the changes of the elements into each other. Such imaginings wash away the filth of life on the ground.",
    "source": "Meditations",
    "author": "Marcus Aurelius"
  },
  {
    "quote": "All the time you should consider who are these people whose endorsement you wish, and what are the minds that direct them. When you look into the sources of their judgement and impulse, you will not blame their unwitting error, nor will you feel the need of their endorsement.",
    "source": "Meditations",
    "author": "Marcus Aurelius"
  }
]
